…
    #> 
    #> $median_rows
    #> # A tibble: 52 x 4
    #>    grp       y date       baseline
    #>    <chr> <int> <date>        <int>
    #>  1 WardX     9 2014-01-01       11
    #>  2 WardX    22 2014-02-01       11
    #>  3 WardX    19 2014-03-01       11
    #>  4 WardX    18 2014-04-01       11
    #>  5 WardX     8 2014-05-01       11
    #>  6 WardX     7 2014-06-01       11
    #>  7 WardX    11 2014-07-01       11
    #>  8 WardX    11 2014-08-01       11
    #>  9 WardX    11 2014-09-01       11
    #> 10 WardX    12 2014-10-01       11
    #> # ... with 42 more rows
…
    #> 
    #> $median_rows
    #> # A tibble: 52 x 4
    #>    grp       y date       baseline
    #>    <chr> <int> <date>        <int>
    #>  1 WardX     9 2014-01-01       11
    #>  2 WardX    22 2014-02-01       11
    #>  3 WardX    19 2014-03-01       11
    #>  4 WardX    18 2014-04-01       11
    #>  5 WardX     8 2014-05-01       11
    #>  6 WardX     7 2014-06-01       11
    #>  7 WardX    11 2014-07-01       11
    #>  8 WardX    11 2014-08-01       11
    #>  9 WardX    11 2014-09-01       11
    #> 10 WardX    12 2014-10-01       11
    #> # ... with 42 more rows
…
    #> 
    #> $median_rows
    #> # A tibble: 24 x 4
    #>    grp       y date       baseline
    #>    <chr> <int> <date>        <dbl>
    #>  1 WardX     9 2014-01-01     13.5
    #>  2 WardX    22 2014-02-01     13.5
    #>  3 WardX    19 2014-03-01     13.5
    #>  4 WardX    18 2014-04-01     13.5
    #>  5 WardX     8 2014-05-01     13.5
    #>  6 WardX     7 2014-06-01     13.5
    #>  7 WardY    11 2014-01-01     13  
    #>  8 WardY    18 2014-02-01     13  
    #>  9 WardY     5 2014-03-01     13  
    #> 10 WardY    14 2014-04-01     13  
    #> # ... with 14 more rows
…
