Automatically plot, analyse and rebase multiple run charts • runcharter
…
#> 
#> $median_rows
#> # A tibble: 52 x 4
#>    grp       y date       baseline
#>    <chr> <int> <date>        <int>
#>  1 WardX     9 2014-01-01       11
#>  2 WardX    22 2014-02-01       11
#>  3 WardX    19 2014-03-01       11
#>  4 WardX    18 2014-04-01       11
#>  5 WardX     8 2014-05-01       11
#>  6 WardX     7 2014-06-01       11
#>  7 WardX    11 2014-07-01       11
#>  8 WardX    11 2014-08-01       11
#>  9 WardX    11 2014-09-01       11
#> 10 WardX    12 2014-10-01       11
#> # ... with 42 more rows
…
#>  1 WardX     9 2014-01-01       19
#>  2 WardX    22 2014-02-01       19
#>  3 WardX    19 2014-03-01       19
#>  4 WardY    11 2014-01-01       11
#>  5 WardY    18 2014-02-01       11
#>  6 WardY     5 2014-03-01       11
#>  7 WardZ     2 2014-01-01        3
#>  8 WardZ     6 2014-02-01        3
#>  9 WardZ     3 2014-03-01        3
#> 10 WardV     5 2014-01-01        3
#> 11 WardV     3 2014-02-01        3
#> 12 WardV     3 2014-03-01        3
#> 
#> $sustained
#> # A tibble: 24 x 10
#>    grp       y date        flag rungroup cusum improve startdate 
#>    <chr> <int> <date>     <dbl>    <dbl> <dbl>   <int> <date>    
#>  1 WardY    14 2014-04-01     1        1     1      14 2014-04-01
#>  2 WardY    12 2014-05-01     1        1     2      14 2014-04-01
#>  3 WardY    14 2014-06-01     1        1     3      14 2014-04-01
#>  4 WardY    16 2014-12-01     1        2     1      18 2014-12-01
#>  5 WardY    19 2015-01-01     1        2     2      18 2014-12-01
#>  6 WardY    18 2015-02-01     1        2     3      18 2014-12-01
#>  7 WardY    20 2015-03-01     1        3     1      19 2015-03-01
#>  8 WardY    19 2015-04-01     1        3     2      19 2015-03-01
#>  9 WardY    19 2015-05-01     1        3     3      19 2015-03-01
#> 10 WardZ     4 2014-04-01     1        1     1       5 2014-04-01
#> # ... with 14 more rows, and 2 more variables: enddate <date>,
#> #   lastdate <date>
…
