runcharter • runcharter
…
#> 
#> $median_rows
#> # A tibble: 52 x 4
#>    grp       y date       baseline
#>    <chr> <int> <date>        <int>
#>  1 WardX     9 2014-01-01       11
#>  2 WardX    22 2014-02-01       11
#>  3 WardX    19 2014-03-01       11
#>  4 WardX    18 2014-04-01       11
#>  5 WardX     8 2014-05-01       11
#>  6 WardX     7 2014-06-01       11
#>  7 WardX    11 2014-07-01       11
#>  8 WardX    11 2014-08-01       11
#>  9 WardX    11 2014-09-01       11
#> 10 WardX    12 2014-10-01       11
#> # ... with 42 more rows
…
#> 
#> $median_rows
#> # A tibble: 52 x 4
#>    grp       y date       baseline
#>    <chr> <int> <date>        <int>
#>  1 WardX     9 2014-01-01       11
#>  2 WardX    22 2014-02-01       11
#>  3 WardX    19 2014-03-01       11
#>  4 WardX    18 2014-04-01       11
#>  5 WardX     8 2014-05-01       11
#>  6 WardX     7 2014-06-01       11
#>  7 WardX    11 2014-07-01       11
#>  8 WardX    11 2014-08-01       11
#>  9 WardX    11 2014-09-01       11
#> 10 WardX    12 2014-10-01       11
#> # ... with 42 more rows
…
#> 
#> $median_rows
#> # A tibble: 6 x 4
#>   grp       y date       baseline
#>   <chr> <int> <date>        <dbl>
#> 1 WardX     9 2014-01-01     13.5
#> 2 WardX    22 2014-02-01     13.5
#> 3 WardX    19 2014-03-01     13.5
#> 4 WardX    18 2014-04-01     13.5
#> 5 WardX     8 2014-05-01     13.5
#> 6 WardX     7 2014-06-01     13.5
#> 
#> $sustained
#> # A tibble: 30 x 8
#>    grp       y date       rungroup improve startdate  enddate    lastdate  
#>    <chr> <int> <date>        <dbl>   <dbl> <date>     <date>     <date>    
#>  1 WardX    11 2014-07-01        1      11 2014-07-01 2014-12-01 2017-06-01
#>  2 WardX    11 2014-08-01        1      11 2014-07-01 2014-12-01 2017-06-01
#>  3 WardX    11 2014-09-01        1      11 2014-07-01 2014-12-01 2017-06-01
#>  4 WardX    12 2014-10-01        1      11 2014-07-01 2014-12-01 2017-06-01
#>  5 WardX     2 2014-11-01        1      11 2014-07-01 2014-12-01 2017-06-01
#>  6 WardX     8 2014-12-01        1      11 2014-07-01 2014-12-01 2017-06-01
#>  7 WardX    21 2015-07-01        2      17 2015-07-01 2015-12-01 2017-06-01
#>  8 WardX    12 2015-08-01        2      17 2015-07-01 2015-12-01 2017-06-01
#>  9 WardX    21 2015-09-01        2      17 2015-07-01 2015-12-01 2017-06-01
#> 10 WardX    12 2015-10-01        2      17 2015-07-01 2015-12-01 2017-06-01
#> # ... with 20 more rows
…
