Create run chart with highlighted improvements where applicable. — runcharter • runcharter
…
#> 
#> $median_rows
#> # A tibble: 52 x 4
#>    grp       y date       baseline
#>    <chr> <int> <date>        <int>
#>  1 WardX     9 2014-01-01       11
#>  2 WardX    22 2014-02-01       11
#>  3 WardX    19 2014-03-01       11
#>  4 WardX    18 2014-04-01       11
#>  5 WardX     8 2014-05-01       11
#>  6 WardX     7 2014-06-01       11
#>  7 WardX    11 2014-07-01       11
#>  8 WardX    11 2014-08-01       11
#>  9 WardX    11 2014-09-01       11
#> 10 WardX    12 2014-10-01       11
#> # ... with 42 more rows
…
